***************************************************************
关于源码项目的相关问题可以联系我们交流：                       
  联系QQ: 254540457     联系QQ: 344245001                       
  我们网站: www.shuangyulin.com                                    
  QQ交流群一：179640010   QQ交流群二：143834285      
***************************************************************

计算机网络发展到现在已经好几十年了，在理论上面已经有了很丰富的基础，并且在现实生活中也到处都在使用，可以说，经过几十年的发展，互联网技术已经把地域信息的隔阂给消除了，让整个世界都可以即时通话和联系，极大的方便了人们的生活。所以说，农产品直卖平台用计算机技术来进行设计，不仅在管理方面更加的系统化，操作性强，最重要的是关于数据的保存和使用都能节约大量的时间，该系统非常的好用。

农产品直卖平台管理数据的工具是MySQL，编码的语言是Java，运用的框架是Spring Boot框架。该系统可以实现商家信用类型管理，农产品信息管理，农产品评价管理，商家管理，农产品订单管理，公告信息管理，用户管理等功能。

农产品直卖平台不仅能让操作人员使用更加地方便，并且设计的也很合理，能有效的避免误操作，让数据在录入的环节就符合设计需要，极大的规避了源头性的输入误差，顺利的让数据变得更加可控并且可靠，让出错的几率降到最低。

关键词：农产品直卖平台；农产品；评价；订单